Change Component Designator: OldDesignator=J1 NewDesignator=VOUT
Change Component Designator: OldDesignator=J3 NewDesignator=GND
Change Component Designator: OldDesignator=TRAFO- NewDesignator=TRAFO -
